<svg xmlns="http://www.w3.org/2000/svg" viewBox="0 0 48 48" x="0px" y="0px">
  <title>menu-apps-widget-ui-setting</title>
  <g data-name="Layer 2">
    <path d="M19,9V25a1,1,0,0,1-1,1H2a1,1,0,0,1-1-1V9A1,1,0,0,1,2,8H18A1,1,0,0,1,19,9ZM18,28H2a1,1,0,0,0-1,1V45a1,1,0,0,0,1,1H18a1,1,0,0,0,1-1V29A1,1,0,0,0,18,28Zm20,0H22a1,1,0,0,0-1,1V45a1,1,0,0,0,1,1H38a1,1,0,0,0,1-1V29A1,1,0,0,0,38,28Zm8.5-17.79-13.86-8a1,1,0,0,0-1.37.37l-8,13.86a1,1,0,0,0,.37,1.37l13.86,8a1,1,0,0,0,1.37-.37l8-13.86A1,1,0,0,0,46.5,10.21Z"/>
  </g>
  <text style="display: none" x="0" y="63" fill="#000000" font-size="5px" font-weight="bold"
        font-family="'Helvetica Neue', Helvetica, Arial-Unicode, Arial, Sans-serif">
    Created by Yoyon Pujiyono from the Noun Project
  </text>
</svg>
